{
	"server": {
		"username": "root",
		"password": "6Cwm7s.5Dk",
		"ip": "192.168.1.219",
		"port": "27017",
		"which_db": "rocketreach"
	},
	"cookieDB": {
		"username": "tpuser",
		"password": "6Cwm7s.5Dk",
		"ip": "103.18.248.33",
		"port": "59765",
		"which_db": "Linkedin_cookies"
	},
	"header": {
		"accept-language": "en-GB,en-US;q=0.8,en;q=0.6",
		"upgrade-insecure-requests": "1",
		"user-agent": "Mozilla/5.0 (X11; Linux x86_64) AppleWebKit/537.36 (KHTML, like Gecko) Chrome/58.0.3029.81 Safari/537.36",
		"accept": "text/html,application/xhtml+xml,application/xml;q=0.9,image/webp,*/*;q=0.8",
		"cache-control": "max-age=0",
		"authority": "www.linkedin.com",
		"cookie": "resCookie",
		"referer": "https://www.linkedin.com/"
	}
}